<?xml version="1.0" encoding="utf-8"?>
<!-- Generator: Adobe Illustrator 15.0.0, SVG Export Plug-In . SVG Version: 6.00 Build 0)  -->
<!DOCTYPE svg PUBLIC "-//W3C//DTD SVG 1.1//EN" "http://www.w3.org/Graphics/SVG/1.1/DTD/svg11.dtd">
<svg version="1.1" id="Layer_1" xmlns="http://www.w3.org/2000/svg" xmlns:xlink="http://www.w3.org/1999/xlink" x="0px" y="0px"
	 width="10px" height="16px" viewBox="251 248 10 16" enable-background="new 251 248 10 16" xml:space="preserve">
<path fill="#d90657" d="M260.177,264.676c0.453,0,0.823-0.387,0.823-0.865l0,0v-14.946l0,0c0-0.479-0.37-0.865-0.823-0.865
	c-0.166,0-0.323,0.052-0.453,0.141l-0.136,0.12l-8.14,7.082c-0.271,0.24-0.448,0.6-0.448,1.002c0,0.4,0.172,0.76,0.448,1
	l8.155,7.086l0.109,0.094C259.843,264.617,260.005,264.676,260.177,264.676z"/>
</svg>
