<?xml version="1.0" encoding="utf-8"?>
<!-- Generator: Adobe Illustrator 15.0.0, SVG Export Plug-In . SVG Version: 6.00 Build 0)  -->
<!DOCTYPE svg PUBLIC "-//W3C//DTD SVG 1.1//EN" "http://www.w3.org/Graphics/SVG/1.1/DTD/svg11.dtd">
<svg version="1.1" id="Layer_1" xmlns="http://www.w3.org/2000/svg" xmlns:xlink="http://www.w3.org/1999/xlink" x="0px" y="0px"
	 width="10px" height="16px" viewBox="251 248 10 16" enable-background="new 251 248 10 16" xml:space="preserve">
<path fill="#d90657" d="M252.287,264.523l0.109-0.094l8.155-7.086c0.276-0.24,0.448-0.6,0.448-1c0-0.402-0.177-0.762-0.448-1.002
	l-8.14-7.082l-0.136-0.12c-0.13-0.088-0.287-0.141-0.453-0.141c-0.453,0-0.823,0.385-0.823,0.865l0,0v14.946l0,0
	c0,0.479,0.37,0.865,0.823,0.865C251.995,264.676,252.157,264.617,252.287,264.523z"/>
</svg>
