<?xml version="1.0" encoding="utf-8"?>
<!-- Generator: Adobe Illustrator 24.3.0, SVG Export Plug-In . SVG Version: 6.00 Build 0)  -->
<svg version="1.1" id="Layer_1" xmlns="http://www.w3.org/2000/svg" xmlns:xlink="http://www.w3.org/1999/xlink" x="0px" y="0px"
	 viewBox="0 0 242 15" style="enable-background:new 0 0 242 15;" xml:space="preserve">
<style type="text/css">
	.st0{fill:#D90657;}
</style>
<g>
	<path class="st0" d="M238.1,7.6c-9.7,0.8-19.4,1.4-29.1,2l-29.1,0h-58.2H63.4H34.3C24.6,9,14.9,8.4,5.2,7.6
		c9.7-0.8,19.4-1.4,29.1-2l29.1,0h58.2h58.2l29.1,0C218.7,6.2,228.4,6.8,238.1,7.6z"/>
</g>
</svg>
