<?xml version="1.0" encoding="utf-8"?>
<!-- Generator: Adobe Illustrator 25.0.0, SVG Export Plug-In . SVG Version: 6.00 Build 0)  -->
<svg version="1.1" id="Layer_1" xmlns="http://www.w3.org/2000/svg" xmlns:xlink="http://www.w3.org/1999/xlink" x="0px" y="0px"
	 viewBox="0 0 350 73" style="enable-background:new 0 0 350 73;" xml:space="preserve">
<style type="text/css">
	.st0{fill:#FFFFFF;}
</style>
<g>
	<path class="st0" d="M73.5,58.8c0-1.1,0.2-2.8,0.5-4.8l3.8-19.5c0.4-2.1,0.4-4.3,0-6.7c-0.4-2.3-1.2-4.2-2.5-5.5
		c-1.7-1.8-4.2-3.1-7.2-3.7s-7-0.9-12.1-0.9c-2.6,0-4.3,0.1-6.6,0.4l-5.8,15l3.1,0.6l0.1-0.2c1-1.8,2.1-3.1,3.2-3.8
		c1.5-0.9,3.6-1.3,6.3-1.3c2,0,3.4,0.4,4,1.1s0.7,2,0.4,3.9c-2.2,0.8-4.2,1.4-6.1,1.9c-2,0.5-6.3,1.4-12.8,2.7
		c-5.5,1.1-9.6,2.7-12,4.9c-0.3,0.3-0.6,0.6-0.9,0.9c-1.9,2.1-3.2,4.6-3.8,7.6c-0.5,2.6-0.2,4.9,0.7,6.9c0.4,0.9,1,1.7,1.7,2.4
		c2.3,2.5,6.2,3.8,11.5,3.8c4,0,7.6-0.6,10.9-1.8c2.2-0.9,4.6-2.2,7-4.1c0,0.9,0,1.6,0.1,2.1c0.1,0.6,0.3,1.5,0.8,2.7l0.1,0.2h16.6
		l-0.1-0.4C73.8,61.5,73.5,60,73.5,58.8z M58.6,45.1c-0.4,2-1.1,3.7-2,5s-2.2,2.3-4,3.2c-1.7,0.9-3.5,1.3-5.4,1.3
		c-1.7,0-2.9-0.4-3.6-1.2c-0.7-0.8-0.9-1.7-0.7-3c0.2-1.1,0.8-2.1,1.9-2.9c1-0.8,3.4-1.7,6.9-2.6c2.4-0.6,4.8-1.3,7.2-2L58.6,45.1z"
		/>
	<path class="st0" d="M113.7,63.7l6.2-31.7h6.8l-6.3,32l19.3-8.3L150,2.2h-11.5L134,18.9h-11.6c0.3-1.7,0.6-2.8,0.9-3.4
		c0.5-1,1.1-1.8,1.8-2.3c0.7-0.5,1.8-0.7,3.2-0.7c1.2,0,2.4,0.1,4.3,0.4l3-10.8c-5.5-0.7-8.5-1-11.4-1c-3.7,0-6.7,0.5-8.8,1.3
		c-0.9,0.4-1.7,0.8-2.3,1.4l-4.3,15.1H98c0.3-1.7,0.6-2.8,0.9-3.4c0.5-1,1.1-1.8,1.8-2.3c0.7-0.5,1.8-0.7,3.2-0.7c1.2,0,2,0,3.9,0.4
		l2.7-11c-4.7-0.6-8-0.8-10.6-0.8c-3.7,0-6.7,0.4-8.8,1.3c-2.1,0.9-3.9,2-5.2,3.4c-1.4,1.4-2.5,3.2-3.3,5.4s-1.4,4.2-1.8,6l-0.3,1.7
		H74l-0.2,0.9c1.5,0.7,2.8,1.5,3.8,2.6c1.2,1.3,2.1,3.1,2.5,5.5c0.4,2.3,0.4,4.6,0,6.7L76.3,54c-0.4,2-0.6,3.7-0.5,4.8
		c0,1.1,0.3,2.6,0.8,4.4l0.1,0.4h12.5L95.4,32h6.8L96,63.7H113.7z"/>
	<path class="st0" d="M34.7,34.4c1.1,0,2.6,0.4,4.3,1.2l0.3,0.1L45.1,19c-1.8-0.7-3.6-1.1-5.4-1.1c-2.4,0-4.6,0.6-6.5,1.8
		c-1.6,1-3.3,2.8-5.1,5.2l1.2-6H12.7L4,63.7h17.7L24,51.3c1.4-7,3.2-11.8,5.3-14.3C30.8,35.3,32.6,34.4,34.7,34.4z"/>
	<path class="st0" d="M198.5,64.1c1.6,0.4,3.4,0.6,5.5,0.6c4,0,7.6-0.6,10.9-1.8c2.2-0.9,4.6-2.2,7-4.1c0,0.9,0,1.6,0.1,2.1
		c0.1,0.6,0.3,1.5,0.8,2.7l0.1,0.2h16.6l-0.1-0.4c-0.5-1.8-0.8-3.3-0.8-4.4c0-1.1,0.2-2.8,0.5-4.8l1.7-8.6L200,57.7L198.5,64.1z"/>
	<path class="st0" d="M242.7,34.6c0.4-2.1,0.4-4.3,0-6.7c-0.4-2.3-1.2-4.2-2.5-5.5c-1.7-1.8-4.2-3.1-7.2-3.7s-7-0.9-12.1-0.9
		c-3.2,0-6.2,0.2-9,0.7c-1.9,0.3-3.5,0.7-4.9,1.2L204.4,33l7.1,0.8l0.1-0.2c1-1.8,2.1-3.1,3.2-3.8c1.5-0.9,3.6-1.3,6.3-1.3
		c2,0,3.4,0.4,4,1.1s0.7,2,0.4,3.9c-2.2,0.8-4.2,1.4-6.1,1.9c-2,0.5-6.3,1.4-12.8,2.7c-1.2,0.2-2.3,0.5-3.3,0.7l-1.9,9.7l40.6-9.9
		L242.7,34.6z"/>
	<polygon class="st0" points="179.2,63.7 196.8,63.7 197.9,58.1 179.2,63.6 	"/>
	<path class="st0" d="M208.8,2.2h-17.6l-4.7,24.4c0,0,0,0,0,0.1c0,0,3.5,7.1,0.2,18.6c-1.2,4-2.4,6.1-3.9,7.7l0,0l-16.7-3l-0.1,0.1
		c-1.3,1.3-2.4,2.2-3.4,2.7c-1.6,0.8-3.2,1.2-4.8,1.2c-2.5,0-4.3-0.9-5.5-2.7c-0.8-1.2-1.1-3.1-1-5.5h33.8l0.4-2.2
		c1.1-5.8,1.1-10.7-0.1-14.3c-1.2-3.7-3.5-6.5-6.9-8.5c-3.3-1.9-8.2-2.9-14.6-2.9c-5.8,0-11,1.2-15.4,3.6l-7,36.1L108.7,72l91-22.8
		L208.8,2.2z M155.9,31.7c1.9-2,4.2-3.1,6.8-3.1c2.2,0,3.9,0.7,4.9,2s1.5,3.5,1.2,6.4H153C153.8,34.7,154.8,32.9,155.9,31.7z"/>
	<path class="st0" d="M284.1,23.9c-2.8-3.9-7-5.9-12.5-5.9c-2.6,0-5.2,0.5-7.5,1.4c-2.1,0.8-4,1.9-5.9,3.4l4-20.5h-17.8l-3.9,19.9
		c0.2,0.2,0.4,0.4,0.6,0.6c1.5,1.5,2.5,3.7,2.9,6.4c0.4,2.5,0.4,5,0,7.3l-0.4,1.8L286,27.5C285.5,26.2,284.9,24.9,284.1,23.9z"/>
	<path class="st0" d="M268.6,40.9c-0.8,3.9-2,6.6-3.6,8.3c-1.6,1.6-3.4,2.4-5.3,2.4c-2.1,0-3.6-0.8-4.6-2.4c-1-1.6-1.2-4.3-0.5-7.9
		l-12.1,3.6l-2.1,10.8c-0.5,2.4-0.5,3.7-0.5,4.4c0,0.9,0.2,2.1,0.6,3.5h8.6l1.2-5.9c1.5,2.4,3.1,4,4.6,5c2.3,1.3,4.9,2,7.9,2
		c3.5,0,6.9-0.9,10.1-2.8c3.2-1.8,6-4.6,8.4-8.3c2.3-3.7,4-8,4.9-12.8c0.6-3.3,0.8-6.3,0.6-9L269,37.1
		C269,38.2,268.9,39.5,268.6,40.9z"/>
	<path class="st0" d="M305,28.9c0.8,0.6,1.6,2.3,1.7,3.6v0.3l6.3-0.9l0.8-0.1l8.8-4.9l21.6-12.1l-43.3,12.8
		C302.5,27.7,303.9,28.1,305,28.9z"/>
	<path class="st0" d="M295.8,29.2l-7.7,2.3c0.5,3.2,0.4,6.9-0.4,11c-0.2,0.8-0.3,1.5-0.5,2.3c2.3,0.7,5.4,1.4,9.5,2.1
		c3.7,0.7,6,1.3,6.8,1.7c1,0.6,1.4,1.4,1.2,2.4c-0.2,1-0.8,1.8-1.8,2.5c-1.4,0.9-3.2,1.4-5.4,1.4c-2,0-3.5-0.4-4.5-1.2
		s-1.7-2.2-1.9-4.1v-0.3l-5.4,0.5c-0.9,2.2-1.9,4.3-3.1,6.2c-1.3,2.1-2.8,3.9-4.4,5.4c3,2.3,8.6,3.5,16.7,3.5
		c5.7,0,10.4-0.7,14.1-2.2c3.6-1.4,6.5-3.4,8.5-5.8c2-2.4,3.3-5,3.8-7.6s0.2-5-0.9-7.1c-1.1-2.2-2.9-3.9-5.5-5
		c-2.5-1.1-6.6-2-12.1-2.7c-3.6-0.4-5.8-0.9-6.8-1.5c-0.9-0.5-1.2-1.1-1-2.1C294.9,30.2,295.3,29.7,295.8,29.2z"/>
	<path class="st0" d="M314.7,19.3c-2.4-0.8-6.3-1.2-11.5-1.2c-5,0-9.1,0.5-12.3,1.6c-2.5,0.8-4.7,2-6.5,3.5c0.3,0.4,0.6,0.7,0.9,1.1
		c0.7,0.9,1.2,1.9,1.7,3l29.4-7.4C315.8,19.7,315.2,19.5,314.7,19.3z"/>
</g>
</svg>
